Tables and DataFrames | DimensionalData
…
Converting to DataFrame ​
array defaultstack defaultlayerfromstack `DimTable`
Arrays will have columns for each dimension, and only one data column
julia
julia> DataFrame(A)

2600×4 DataFrame
  Row │ X      Y      category  data
      │ Int64  Int64  Char      Float64
──────┼───────────────────────────────────
    1 │     1      1  a         0.66452
    2 │     2      1  a         0.218072
    3 │     3      1  a         0.15572
    4 │     4      1  a         0.462016
    5 │     5      1  a         0.98151
    6 │     6      1  a         0.694439
    7 │     7      1  a         0.115309
    8 │     8      1  a         0.713638
  ⋮   │   ⋮      ⋮       ⋮          ⋮
 2594 │     4     10  z         0.788866
 2595 │     5     10  z         0.447622
 2596 │     6     10  z         0.646844
 2597 │     7     10  z         0.0835993
 2598 │     8     10  z         0.63769
 2599 │     9     10  z         0.33656
 2600 │    10     10  z         0.855131
                         2585 rows omitted
…
