Tables and DataFrames | DimensionalData.jl
…
Converting to DataFrame ​
array defaultstack defaultlayersfrommergedims
Arrays will have columns for each dimension, and only one data column
julia
julia> DataFrame(A)

2600×4 DataFrame
  Row │ X      Y      category  data
      │ Int64  Int64  Char      Float64
──────┼────────────────────────────────────
    1 │     1      1  a         0.469953
    2 │     2      1  a         0.814749
    3 │     3      1  a         0.647159
    4 │     4      1  a         0.44172
    5 │     5      1  a         0.00261535
    6 │     6      1  a         0.653309
    7 │     7      1  a         0.656858
    8 │     8      1  a         0.398341
  ⋮   │   ⋮      ⋮       ⋮          ⋮
 2594 │     4     10  z         0.56341
 2595 │     5     10  z         0.645334
 2596 │     6     10  z         0.109206
 2597 │     7     10  z         0.0854041
 2598 │     8     10  z         0.042354
 2599 │     9     10  z         0.522194
 2600 │    10     10  z         0.949353
                          2585 rows omitted
…
