Tables and DataFrames | DimensionalData
…
Converting to DataFrame ​
array defaultstack defaultlayersfrommergedims
Arrays will have columns for each dimension, and only one data column
julia
julia> DataFrame(A)

2600×4 DataFrame
  Row │ X      Y      category  data
      │ Int64  Int64  Char      Float64
──────┼───────────────────────────────────
    1 │     1      1  a         0.839028
    2 │     2      1  a         0.970162
    3 │     3      1  a         0.47182
    4 │     4      1  a         0.0301298
    5 │     5      1  a         0.608818
    6 │     6      1  a         0.693535
    7 │     7      1  a         0.742833
    8 │     8      1  a         0.453859
  ⋮   │   ⋮      ⋮       ⋮          ⋮
 2594 │     4     10  z         0.769112
 2595 │     5     10  z         0.56951
 2596 │     6     10  z         0.947361
 2597 │     7     10  z         0.678998
 2598 │     8     10  z         0.78164
 2599 │     9     10  z         0.69066
 2600 │    10     10  z         0.800322
                         2585 rows omitted
…
