Tables and DataFrames | DimensionalData.jl
…
Converting to DataFrame ​
array defaultstack defaultlayersfrommergedims
Arrays will have columns for each dimension, and only one data column
julia
julia> DataFrame(A)

2600×4 DataFrame
  Row │ X      Y      category  data
      │ Int64  Int64  Char      Float64
──────┼───────────────────────────────────
    1 │     1      1  a         0.890787
    2 │     2      1  a         0.150159
    3 │     3      1  a         0.884931
    4 │     4      1  a         0.368272
    5 │     5      1  a         0.595497
    6 │     6      1  a         0.764198
    7 │     7      1  a         0.894067
    8 │     8      1  a         0.182117
  ⋮   │   ⋮      ⋮       ⋮          ⋮
 2594 │     4     10  z         0.219376
 2595 │     5     10  z         0.827522
 2596 │     6     10  z         0.399788
 2597 │     7     10  z         0.837028
 2598 │     8     10  z         0.840178
 2599 │     9     10  z         0.179842
 2600 │    10     10  z         0.206219
                         2585 rows omitted
…
