Tables and DataFrames | DimensionalData
…
Converting to DataFrame ​
array defaultstack defaultlayersfrommergedims
Arrays will have columns for each dimension, and only one data column
julia
julia> DataFrame(A)

2600×4 DataFrame
  Row │ X      Y      category  data
      │ Int64  Int64  Char      Float64
──────┼───────────────────────────────────
    1 │     1      1  a         0.735327
    2 │     2      1  a         0.166275
    3 │     3      1  a         0.306702
    4 │     4      1  a         0.859345
    5 │     5      1  a         0.722399
    6 │     6      1  a         0.8226
    7 │     7      1  a         0.527825
    8 │     8      1  a         0.147035
  ⋮   │   ⋮      ⋮       ⋮          ⋮
 2594 │     4     10  z         0.267556
 2595 │     5     10  z         0.745277
 2596 │     6     10  z         0.142436
 2597 │     7     10  z         0.954366
 2598 │     8     10  z         0.579098
 2599 │     9     10  z         0.0486433
 2600 │    10     10  z         0.162655
                         2585 rows omitted
…
