Tables and DataFrames | DimensionalData.jl
…
Converting to DataFrame ​
array defaultstack defaultlayersfrommergedims
Arrays will have columns for each dimension, and only one data column
julia
julia> DataFrame(A)

2600×4 DataFrame
  Row │ X      Y      category  data
      │ Int64  Int64  Char      Float64
──────┼───────────────────────────────────
    1 │     1      1  a         0.364543
    2 │     2      1  a         0.312111
    3 │     3      1  a         0.197152
    4 │     4      1  a         0.769846
    5 │     5      1  a         0.716636
    6 │     6      1  a         0.309124
    7 │     7      1  a         0.912721
    8 │     8      1  a         0.591802
  ⋮   │   ⋮      ⋮       ⋮          ⋮
 2594 │     4     10  z         0.267426
 2595 │     5     10  z         0.997712
 2596 │     6     10  z         0.754333
 2597 │     7     10  z         0.778643
 2598 │     8     10  z         0.290491
 2599 │     9     10  z         0.0305432
 2600 │    10     10  z         0.0445634
                         2585 rows omitted
…
