Tables and DataFrames | DimensionalData.jl
…
Converting to DataFrame ​
array defaultstack defaultlayersfrommergedims
Arrays will have columns for each dimension, and only one data column
julia
julia> DataFrame(A)

2600×4 DataFrame
  Row │ X      Y      category  data
      │ Int64  Int64  Char      Float64
──────┼───────────────────────────────────
    1 │     1      1  a         0.76123
    2 │     2      1  a         0.700541
    3 │     3      1  a         0.0108123
    4 │     4      1  a         0.674051
    5 │     5      1  a         0.909397
    6 │     6      1  a         0.93184
    7 │     7      1  a         0.673663
    8 │     8      1  a         0.770786
  ⋮   │   ⋮      ⋮       ⋮          ⋮
 2594 │     4     10  z         0.328153
 2595 │     5     10  z         0.113462
 2596 │     6     10  z         0.027902
 2597 │     7     10  z         0.651458
 2598 │     8     10  z         0.63613
 2599 │     9     10  z         0.454723
 2600 │    10     10  z         0.62828
                         2585 rows omitted
…
