Tables and DataFrames | DimensionalData.jl
…
Converting to DataFrame ​
array defaultstack defaultlayersfrommergedims
Arrays will have columns for each dimension, and only one data column
julia
julia> DataFrame(A)

2600×4 DataFrame
  Row │ X      Y      category  data
      │ Int64  Int64  Char      Float64
──────┼───────────────────────────────────
    1 │     1      1  a         0.0616337
    2 │     2      1  a         0.152286
    3 │     3      1  a         0.34458
    4 │     4      1  a         0.891807
    5 │     5      1  a         0.303608
    6 │     6      1  a         0.370339
    7 │     7      1  a         0.883659
    8 │     8      1  a         0.218985
  ⋮   │   ⋮      ⋮       ⋮          ⋮
 2594 │     4     10  z         0.600743
 2595 │     5     10  z         0.304789
 2596 │     6     10  z         0.896947
 2597 │     7     10  z         0.365281
 2598 │     8     10  z         0.639834
 2599 │     9     10  z         0.626921
 2600 │    10     10  z         0.286008
                         2585 rows omitted
…
