Tables and DataFrames | DimensionalData.jl
…
Converting to DataFrame ​
array defaultstack defaultlayersfrommergedims
Arrays will have columns for each dimension, and only one data column
julia
julia> DataFrame(A)

2600×4 DataFrame
  Row │ X      Y      category  data
      │ Int64  Int64  Char      Float64
──────┼───────────────────────────────────
    1 │     1      1  a         0.863534
    2 │     2      1  a         0.247662
    3 │     3      1  a         0.408359
    4 │     4      1  a         0.465553
    5 │     5      1  a         0.487462
    6 │     6      1  a         0.34041
    7 │     7      1  a         0.2713
    8 │     8      1  a         0.13644
  ⋮   │   ⋮      ⋮       ⋮          ⋮
 2594 │     4     10  z         0.053013
 2595 │     5     10  z         0.0504618
 2596 │     6     10  z         0.379303
 2597 │     7     10  z         0.550938
 2598 │     8     10  z         0.0726926
 2599 │     9     10  z         0.257262
 2600 │    10     10  z         0.233238
                         2585 rows omitted
…
